\relax 
\providecommand\hyper@newdestlabel[2]{}
\providecommand\HyperFirstAtBeginDocument{\AtBeginDocument}
\HyperFirstAtBeginDocument{\ifx\hyper@anchor\@undefined
\global\let\oldcontentsline\contentsline
\gdef\contentsline#1#2#3#4{\oldcontentsline{#1}{#2}{#3}}
\global\let\oldnewlabel\newlabel
\gdef\newlabel#1#2{\newlabelxx{#1}#2}
\gdef\newlabelxx#1#2#3#4#5#6{\oldnewlabel{#1}{{#2}{#3}}}
\AtEndDocument{\ifx\hyper@anchor\@undefined
\let\contentsline\oldcontentsline
\let\newlabel\oldnewlabel
\fi}
\fi}
\global\let\hyper@last\relax 
\gdef\HyperFirstAtBeginDocument#1{#1}
\providecommand\HyField@AuxAddToFields[1]{}
\providecommand\HyField@AuxAddToCoFields[2]{}
\babel@aux{english}{}
\@LN{0}{0}
\@LN{1}{0}
\@LN{2}{0}
\@LN{3}{0}
\@LN{4}{0}
\@LN{5}{0}
\@LN{6}{0}
\@LN{7}{0}
\@LN{8}{0}
\@LN{9}{0}
\@LN{10}{0}
\@LN{11}{0}
\@LN{12}{0}
\@LN{13}{0}
\@LN{14}{0}
\@LN{15}{0}
\@LN{16}{0}
\@LN{17}{0}
\@LN{18}{0}
\@LN{19}{0}
\@LN{20}{0}
\@LN{21}{0}
\@LN{22}{0}
\@LN{23}{0}
\@LN{24}{0}
\@LN{25}{0}
\@LN{26}{0}
\@LN{27}{0}
\@LN{28}{0}
\@LN{29}{0}
\@LN{30}{0}
\@LN{31}{0}
\@LN{32}{0}
\@LN{33}{0}
\@LN{34}{0}
\@LN{35}{0}
\@LN{36}{0}
\@LN{37}{0}
\@LN{38}{0}
\@LN{39}{0}
\@LN{40}{0}
\@LN{41}{0}
\@LN{42}{0}
\@LN{43}{0}
\@LN{44}{0}
\@LN{45}{0}
\@LN{46}{0}
\@LN{47}{0}
\@LN{48}{0}
\@LN{49}{0}
\@LN{50}{0}
\@LN{51}{0}
\@LN{52}{0}
\@LN{53}{0}
\@LN{54}{0}
\@LN{55}{0}
\@LN{56}{0}
\@LN{57}{0}
\@LN{58}{0}
\@LN{59}{0}
\@LN{60}{0}
\@LN{61}{0}
\@LN{62}{0}
\@LN{63}{0}
\@LN{64}{0}
\@LN{65}{0}
\@LN{66}{0}
\@LN{67}{1}
\@LN{68}{1}
\@LN{69}{1}
\@LN{70}{1}
\@LN{71}{1}
\@LN{72}{1}
\@LN{73}{1}
\@LN{74}{1}
\@LN{75}{1}
\@LN{76}{1}
\@LN{77}{1}
\@LN{78}{1}
\@LN{79}{1}
\@LN{80}{1}
\@LN{81}{1}
\@LN{82}{1}
\@LN{83}{1}
\@LN{84}{1}
\@LN{85}{1}
\@LN{86}{1}
\@LN{87}{1}
\@LN{88}{1}
\@LN{89}{1}
\@LN{90}{1}
\@LN{91}{1}
\@LN{92}{1}
\@LN{93}{1}
\@LN{94}{1}
\@LN{95}{1}
\@LN{96}{1}
\@LN{97}{1}
\@LN{98}{1}
\@LN{99}{1}
\@LN{100}{1}
\@LN{101}{1}
\@LN{102}{1}
\@LN{103}{1}
\@LN{104}{1}
\@LN{105}{1}
\@LN{106}{1}
\@LN{107}{1}
\@LN{108}{1}
\@LN{109}{1}
\@LN{110}{1}
\@LN{111}{1}
\@LN{112}{1}
\@LN{113}{1}
\@LN{114}{1}
\@LN{115}{1}
\@LN{116}{1}
\@LN{117}{1}
\@LN{118}{1}
\@LN{119}{1}
\@LN{120}{1}
\@LN{121}{1}
\@LN{122}{1}
\@LN{123}{1}
\@LN{124}{1}
\@LN{125}{1}
\@LN{126}{1}
\@LN{127}{1}
\@LN{128}{1}
\@LN{129}{1}
\@LN{130}{1}
\@LN{131}{1}
\@LN{132}{1}
\@LN{133}{1}
\@LN{134}{2}
\@LN{135}{2}
\@LN{136}{2}
\@LN{137}{2}
\@LN{138}{2}
\@LN{139}{2}
\@LN{140}{2}
\@LN{141}{2}
\@LN{142}{2}
\@LN{143}{2}
\@LN{144}{2}
\@LN{145}{2}
\@LN{146}{2}
\@LN{147}{2}
\@LN{148}{2}
\@LN{149}{2}
\@LN{150}{2}
\@LN{151}{2}
\@LN{152}{2}
\@LN{153}{2}
\@LN{154}{2}
\@LN{155}{2}
\@LN{156}{2}
\@LN{157}{2}
\@LN{158}{2}
\@LN{159}{2}
\@LN{160}{2}
\@LN{161}{2}
\@LN{162}{2}
\@LN{163}{2}
\@LN{164}{2}
\@LN{165}{2}
\@LN{166}{2}
\@LN{167}{2}
\@LN{168}{2}
\@LN{169}{2}
\@LN{170}{2}
\@LN{171}{2}
\@LN{172}{2}
\@LN{173}{2}
\@LN{174}{2}
\@LN{175}{2}
\@LN{176}{2}
\@LN{177}{2}
\@LN{178}{2}
\@LN{179}{2}
\@LN{180}{2}
\@LN{181}{2}
\@LN{182}{2}
\@LN{183}{2}
\@LN{184}{2}
\@LN{185}{2}
\@LN{186}{2}
\@LN{187}{2}
\@LN{188}{2}
\@LN{189}{2}
\@LN{190}{2}
\@LN{191}{2}
\@LN{192}{2}
\@LN{193}{2}
\@LN{194}{2}
\@LN{195}{2}
\@LN{196}{2}
\@LN{197}{2}
\@LN{198}{2}
\@LN{199}{2}
\@LN{200}{2}
\@LN{201}{3}
\@LN{202}{3}
\@LN{203}{3}
\@LN{204}{3}
\@LN{205}{3}
\@LN{206}{3}
\@LN{207}{3}
\@LN{208}{3}
\@LN{209}{3}
\@LN{210}{3}
\@LN{211}{3}
\@LN{212}{3}
\@LN{213}{3}
\@LN{214}{3}
\@LN{215}{3}
\@LN{216}{3}
\@LN{217}{3}
\@LN{218}{3}
\@LN{219}{3}
\@LN{220}{3}
\@LN{221}{3}
\@LN{222}{3}
\@LN{223}{3}
\@LN{224}{3}
\@LN{225}{3}
\@LN{226}{3}
\@LN{227}{3}
\@LN{228}{3}
\@LN{229}{3}
\@LN{230}{3}
\@LN{231}{3}
\@LN{232}{3}
\@LN{233}{3}
\@LN{234}{3}
\@LN{235}{3}
\@LN{236}{3}
\@LN{237}{3}
\@LN{238}{3}
\@LN{239}{3}
\@LN{240}{3}
\@LN{241}{3}
\@LN{242}{3}
\@LN{243}{3}
\@LN{244}{3}
\@LN{245}{3}
\@LN{246}{3}
\@LN{247}{3}
\@LN{248}{3}
\@LN{249}{3}
\@LN{250}{3}
\@LN{251}{3}
\@LN{252}{3}
\@LN{253}{3}
\@LN{254}{3}
\@LN{255}{3}
\@LN{256}{3}
\@LN{257}{3}
\@LN{258}{3}
\@LN{259}{3}
\@LN{260}{3}
\@LN{261}{3}
\@LN{262}{3}
\@LN{263}{3}
\@LN{264}{3}
\@LN{265}{3}
\@LN{266}{3}
\@LN{267}{3}
\@LN{268}{3}
\@LN{269}{4}
\@LN{270}{4}
\@LN{271}{4}
\@LN{272}{4}
\@LN{273}{4}
\@LN{274}{4}
\@LN{275}{4}
\@LN{276}{4}
\@LN{277}{4}
\@LN{278}{4}
\@LN{279}{4}
\@LN{280}{4}
\@LN{281}{4}
\@LN{282}{4}
\@LN{283}{4}
\@LN{284}{4}
\@LN{285}{4}
\@LN{286}{4}
\@LN{287}{4}
\@LN{288}{4}
\@LN{289}{4}
\@LN{290}{4}
\@LN{291}{4}
\@LN{292}{4}
\@LN{293}{4}
\@LN{294}{4}
\@LN{295}{4}
\@LN{296}{4}
\@LN{297}{4}
\@LN{298}{4}
\@LN{299}{4}
\@LN{300}{4}
\@LN{301}{4}
\@LN{302}{4}
\@LN{303}{4}
\@LN{304}{4}
\@LN{305}{4}
\@LN{306}{4}
\@LN{307}{4}
\@LN{308}{4}
\@LN{309}{4}
\@LN{310}{4}
\@LN{311}{4}
\@LN{312}{4}
\@LN{313}{4}
\@LN{314}{4}
\@LN{315}{4}
\@LN{316}{4}
\@LN{317}{4}
\@LN{318}{4}
\@LN{319}{4}
\@LN{320}{4}
\@LN{321}{4}
\@LN{322}{4}
\@LN{323}{4}
\@LN{324}{4}
\@LN{325}{4}
\@LN{326}{4}
\@LN{327}{4}
\@LN{328}{4}
\@LN{329}{4}
\@LN{330}{4}
\@LN{331}{4}
\@LN{332}{4}
\@LN{333}{4}
\@LN{334}{4}
\@LN{335}{4}
\@LN{336}{5}
\@LN{337}{5}
\@LN{338}{5}
\@LN{339}{5}
\@LN{340}{5}
\@LN{341}{5}
\@LN{342}{5}
\@LN{343}{5}
\@LN{344}{5}
\@LN{345}{5}
\@LN{346}{5}
\@LN{347}{5}
\@LN{348}{5}
\@LN{349}{5}
\@LN{350}{5}
\@LN{351}{5}
\@LN{352}{5}
\@LN{353}{5}
\@LN{354}{5}
\@LN{355}{5}
\@LN{356}{5}
\@LN{357}{5}
\@LN{358}{5}
\@LN{359}{5}
\@LN{360}{5}
\@LN{361}{5}
\@LN{362}{5}
\@LN{363}{5}
\@LN{364}{5}
\@LN{365}{5}
\@LN{366}{5}
\@LN{367}{5}
\@LN{368}{5}
\@LN{369}{5}
\@LN{370}{5}
\@LN{371}{5}
\@LN{372}{5}
\@LN{373}{5}
\@LN{374}{5}
\@LN{375}{5}
\@LN{376}{5}
\@LN{377}{5}
\@LN{378}{5}
\@LN{379}{5}
\@LN{380}{5}
\@LN{381}{5}
\@LN{382}{5}
\@LN{383}{5}
\@LN{384}{5}
\@LN{385}{5}
\@LN{386}{5}
\@LN{387}{5}
\@LN{388}{5}
\@LN{389}{5}
\@LN{390}{5}
\@LN{391}{5}
\@LN{392}{5}
\@LN{393}{5}
\@LN{394}{5}
\@LN{395}{5}
\@LN{396}{5}
\@LN{397}{5}
\@LN{398}{5}
\@LN{399}{5}
\@LN{400}{5}
\@LN{401}{5}
\@LN{402}{5}
\@LN{403}{6}
\@LN{404}{6}
\@LN{405}{6}
\@LN{406}{6}
\@LN{407}{6}
\@LN{408}{6}
\@LN{409}{6}
\@LN{410}{6}
\@LN{411}{6}
\@LN{412}{6}
\@LN{413}{6}
\@LN{414}{6}
\@LN{415}{6}
\@LN{416}{6}
\@LN{417}{6}
\@LN{418}{6}
\@LN{419}{6}
\@LN{420}{6}
\@LN{421}{6}
\@LN{422}{6}
\@LN{423}{6}
\@LN{424}{6}
\@LN{425}{6}
\@LN{426}{6}
\@LN{427}{6}
\@LN{428}{6}
\@LN{429}{6}
\@LN{430}{6}
\@LN{431}{6}
\@LN{432}{6}
\@LN{433}{6}
\@LN{434}{6}
\@LN{435}{6}
\@LN{436}{6}
\@LN{437}{6}
\@LN{438}{6}
\@LN{439}{6}
\@LN{440}{6}
\@LN{441}{6}
\@LN{442}{6}
\@LN{443}{6}
\@LN{444}{6}
\@LN{445}{6}
\@LN{446}{6}
\@LN{447}{6}
\@LN{448}{6}
\@LN{449}{6}
\@LN{450}{6}
\@LN{451}{6}
\@LN{452}{6}
\@LN{453}{6}
\@LN{454}{6}
\@LN{455}{6}
\@LN{456}{6}
\@LN{457}{6}
\@LN{458}{6}
\@LN{459}{6}
\@LN{460}{6}
\@LN{461}{6}
\@LN{462}{6}
\@LN{463}{6}
\@LN{464}{6}
\@LN{465}{6}
\@LN{466}{6}
\@LN{467}{6}
\@LN{468}{6}
\@LN{469}{6}
\@LN{470}{7}
\@LN{471}{7}
\@LN{472}{7}
\@LN{473}{7}
\@LN{474}{7}
\@LN{475}{7}
\@LN{476}{7}
\@LN{477}{7}
\@LN{478}{7}
\@LN{479}{7}
\@LN{480}{7}
\@LN{481}{7}
\@LN{482}{7}
\@LN{483}{7}
\@LN{484}{7}
\@LN{485}{7}
\@LN{486}{7}
\@LN{487}{7}
\@LN{488}{7}
\@LN{489}{7}
\@LN{490}{7}
\@LN{491}{7}
\@LN{492}{7}
\@LN{493}{7}
\@LN{494}{7}
\@LN{495}{7}
\@LN{496}{7}
\@LN{497}{7}
\@LN{498}{7}
\@LN{499}{7}
\@LN{500}{7}
\@LN{501}{7}
\@LN{502}{7}
\@LN{503}{7}
\@LN{504}{7}
\@LN{505}{7}
\@LN{506}{7}
\@LN{507}{7}
\@LN{508}{7}
\@LN{509}{7}
\@LN{510}{7}
\@LN{511}{7}
\@LN{512}{7}
\@LN{513}{7}
\@LN{514}{7}
\@LN{515}{7}
\@LN{516}{7}
\@LN{517}{7}
\@LN{518}{7}
\@LN{519}{7}
\@LN{520}{7}
\@LN{521}{7}
\@LN{522}{7}
\@LN{523}{7}
\@LN{524}{7}
\@LN{525}{7}
\@LN{526}{7}
\@LN{527}{7}
\@LN{528}{7}
\@LN{529}{7}
\@LN{530}{7}
\@LN{531}{7}
\@LN{532}{7}
\@LN{533}{7}
\@LN{534}{7}
\@LN{535}{7}
\@LN{536}{7}
\@LN{537}{8}
\@LN{538}{8}
\@LN{539}{8}
\@LN{540}{8}
\@LN{541}{8}
\@LN{542}{8}
\@LN{543}{8}
\@LN{544}{8}
\@LN{545}{8}
\@LN{546}{8}
\@LN{547}{8}
\@LN{548}{8}
\@LN{549}{8}
\@LN{550}{8}
\@LN{551}{8}
\@LN{552}{8}
\@LN{553}{8}
\@LN{554}{8}
\@LN{555}{8}
\@LN{556}{8}
\@LN{557}{8}
\@LN{558}{8}
\@LN{559}{8}
\@LN{560}{8}
\@LN{561}{8}
\@LN{562}{8}
\@LN{563}{8}
\@LN{564}{8}
\@LN{565}{8}
\@LN{566}{8}
\@LN{567}{8}
\@LN{568}{8}
\@LN{569}{8}
\@LN{570}{8}
\@LN{571}{8}
\@LN{572}{8}
\@LN{573}{8}
\@LN{574}{8}
\@LN{575}{8}
\@LN{576}{8}
\@LN{577}{8}
\@LN{578}{8}
\@LN{579}{8}
\@LN{580}{8}
\@LN{581}{8}
\@LN{582}{8}
\@LN{583}{8}
\@LN{584}{8}
\@LN{585}{8}
\@LN{586}{8}
\@LN{587}{8}
\@LN{588}{8}
\@LN{589}{8}
\@LN{590}{8}
\@LN{591}{8}
\@LN{592}{8}
\@LN{593}{8}
\@LN{594}{8}
\@LN{595}{8}
\@LN{596}{8}
\@LN{597}{8}
\@LN{598}{8}
\@LN{599}{8}
\@LN{600}{8}
\@LN{601}{8}
\@LN{602}{8}
\@LN{603}{8}
\@LN{604}{9}
\@LN{605}{9}
\@LN{606}{9}
\@LN{607}{9}
\@LN{608}{9}
\@LN{609}{9}
\@LN{610}{9}
\@LN{611}{9}
\@LN{612}{9}
\@LN{613}{9}
\@LN{614}{9}
\@LN{615}{9}
\@LN{616}{9}
\@LN{617}{9}
\@LN{618}{9}
\@LN{619}{9}
\@LN{620}{9}
\@LN{621}{9}
\@LN{622}{9}
\@LN{623}{9}
\@LN{624}{9}
\@LN{625}{9}
\@LN{626}{9}
\@LN{627}{9}
\@LN{628}{9}
\@LN{629}{9}
\@LN{630}{9}
\@LN{631}{9}
\@LN{632}{9}
\@LN{633}{9}
\@LN{634}{9}
\@LN{635}{9}
\@LN{636}{9}
\@LN{637}{9}
\@LN{638}{9}
\@LN{639}{9}
\@LN{640}{9}
\@LN{641}{9}
\@LN{642}{9}
\@LN{643}{9}
\@LN{644}{9}
\@LN{645}{9}
\@LN{646}{9}
\@LN{647}{9}
\@LN{648}{9}
\@LN{649}{9}
\@LN{650}{9}
\@LN{651}{9}
\@LN{652}{9}
\@LN{653}{9}
\@LN{654}{9}
\@LN{655}{9}
\@LN{656}{9}
\@LN{657}{9}
\@LN{658}{9}
\@LN{659}{9}
\@LN{660}{9}
\@LN{661}{9}
\@LN{662}{9}
\@LN{663}{9}
\@LN{664}{9}
\@LN{665}{9}
\@LN{666}{9}
\@LN{667}{9}
\@LN{668}{9}
\@LN{669}{9}
\@LN{670}{9}
\@LN{671}{9}
\@LN{672}{9}
\@LN{673}{10}
\@LN{674}{10}
\@LN{675}{10}
\@LN{676}{10}
\@LN{677}{10}
\@LN{678}{10}
\@LN{679}{10}
\@LN{680}{10}
\@LN{681}{10}
\@LN{682}{10}
\@LN{683}{10}
\@LN{684}{10}
\@LN{685}{10}
\@LN{686}{10}
\@LN{687}{10}
\@LN{688}{10}
\@LN{689}{10}
\@LN{690}{10}
\@LN{691}{10}
\@LN{692}{10}
\@LN{693}{10}
\@LN{694}{10}
\@LN{695}{10}
\@LN{696}{10}
\@LN{697}{10}
\@LN{698}{10}
\@LN{699}{10}
\@LN{700}{10}
\@LN{701}{10}
\@LN{702}{10}
\@LN{703}{10}
\@LN{704}{10}
\@LN{705}{10}
\@LN{706}{10}
\@LN{707}{10}
\@LN{708}{10}
\@LN{709}{10}
\@LN{710}{10}
\@LN{711}{10}
\@LN{712}{10}
\@LN{713}{10}
\@LN{714}{10}
\@LN{715}{10}
\@LN{716}{10}
\@LN{717}{10}
\@LN{718}{10}
\@LN{719}{10}
\@LN{720}{10}
\@LN{721}{10}
\@LN{722}{10}
\@LN{723}{10}
\@LN{724}{10}
\@LN{725}{10}
\@LN{726}{10}
\@LN{727}{10}
\@LN{728}{10}
\@LN{729}{10}
\@LN{730}{10}
\@LN{731}{10}
\@LN{732}{10}
\@LN{733}{10}
\@LN{734}{10}
\@LN{735}{10}
\@LN{736}{10}
\@LN{737}{10}
\@LN{738}{10}
\@LN{739}{10}
\@LN{740}{11}
\@LN{741}{11}
\@LN{742}{11}
\@LN{743}{11}
\@LN{744}{11}
\@LN{745}{11}
\@LN{746}{11}
\@LN{747}{11}
\@LN{748}{11}
\@LN{749}{11}
\@LN{750}{11}
\@LN{751}{11}
\@LN{752}{11}
\@LN{753}{11}
\@LN{754}{11}
\@LN{755}{11}
\@LN{756}{11}
\@LN{757}{11}
\@LN{758}{11}
\@LN{759}{11}
\@LN{760}{11}
\@LN{761}{11}
\@LN{762}{11}
\@LN{763}{11}
\@LN{764}{11}
\@LN{765}{11}
\@LN{766}{11}
\@LN{767}{11}
\@LN{768}{11}
\@LN{769}{11}
\@LN{770}{11}
\@LN{771}{11}
\@LN{772}{11}
\@LN{773}{11}
\@LN{774}{11}
\@LN{775}{11}
\@LN{776}{11}
\@LN{777}{11}
\@LN{778}{11}
\@LN{779}{11}
\@LN{780}{11}
\@LN{781}{11}
\@LN{782}{11}
\@LN{783}{11}
\@LN{784}{11}
\@LN{785}{11}
\@LN{786}{11}
\@LN{787}{11}
\@LN{788}{11}
\@LN{789}{11}
\@LN{790}{11}
\@LN{791}{11}
\@LN{792}{11}
\@LN{793}{11}
\@LN{794}{11}
\@LN{795}{11}
\@LN{796}{11}
\@LN{797}{11}
\@LN{798}{11}
\@LN{799}{11}
\@LN{800}{11}
\@LN{801}{11}
\@LN{802}{11}
\@LN{803}{11}
\@LN{804}{11}
\@LN{805}{11}
\@LN{806}{11}
\@LN{807}{12}
\@LN{808}{12}
\@LN{809}{12}
\@LN{810}{12}
\@LN{811}{12}
\@LN{812}{12}
\@LN{813}{12}
\@LN{814}{12}
\@LN{815}{12}
\@LN{816}{12}
\@LN{817}{12}
\@LN{818}{12}
\@LN{819}{12}
\@LN{820}{12}
\@LN{821}{12}
\@LN{822}{12}
\@LN{823}{12}
\@LN{824}{12}
\@LN{825}{12}
\@LN{826}{12}
\@LN{827}{12}
\@LN{828}{12}
\@LN{829}{12}
\@LN{830}{12}
\@LN{831}{12}
\@LN{832}{12}
\@LN{833}{12}
\@LN{834}{12}
\@LN{835}{12}
\@LN{836}{13}
\@LN{837}{13}
\@LN{838}{13}
\@LN{839}{13}
