Diante do exposto, busca-se investigar nesta pesquisa se a percepção e as expectativas dos especialistas são compatíveis com o conhecimento disponível no meio acadêmico sobre as questões técnicas que envolvem a utilização de mundos virtuais 3D, questionando-os, de forma geral, sobre a capacidade do público-alvo do ambiente em usufruir adequadamente deste recurso e as ponderações a serem relevadas.
}
\ParallelParTOP
%eng46
