The ideia is that the environment is accessed by the distance education student in his own home, comfortably and in a convenient way, at any time of the day, and it can be revisited countless times, depending on the student's interest. However, a single access of approximately 40 minutes if the estimated and proposed time for the user to get used to the controls and go through all the rooms.
}
%pt69
