In order to investigate the research questions, an online form containing 15 questions, between objective and subjective, was applied individually, immediately after the use of the environment. Objective questions had 5-point Likert answer options, and on each one a blank space was added to receive feedback from participants, encouraging them to provide explanations of the reasons for their choice of response. It was suggested by the researchers at the time of application of the questionnaire that participants take into account their own experiences in the distance eductaion modality and, if they did not have experience directly with the evaluated item, they should consider their opinion regarding their area of expertise. The analysis of the data obtained is presented in the following section.
}
%pt93
