Initially, the eight undergraduate students in Nature Sciences, took the test. They used computers from the computer laboratory of the public institution they are linked in a schedule previously defined with a teacher the course. After that, the other participants, who were individually invited, used one of the research group's workstations or their own personal computers to access the environment. All the participants were previously instructed on the purpose of the study, oriented on the functioning of the environment, and received an individual login for testing purposes.
}
%pt87
