A Q10 tratou de identificar se os especialistas consideram que \textbf{existe uma correspondência entre o ambiente virtual e o que é explicado em aulas de EAD}. A maioria dos participantes indicou que sim (58$\%$ ), atribuindo pontuações 4 ou 5. Entretanto 42$\%$  manifestou-se na opção neutra da escala (3), demonstrando não ter certeza de que essa correspondência existe, ou indicando que talvez essa correspondência seja fraca ou suficiente. Novamente, nenhum participante discordou totalmente da asserção. No momento de responder, dois especialistas informaram os pesquisadores que não se sentiam confortáveis em responder essa questão por não serem professores da área, sendo então orientados a assinalar a pontuação 3 (neutra). Observa-se, portanto, que, de acordo com a amostra, essa correspondência existe, porém, opiniões divergentes apareceram talvez devido à sua composição interdisciplinar, por profissionais de áreas diferentes da matemática/contabilidade.
}
\ParallelParTOP
%eng132
