Junto a estas questões foi colocado um espaço aberto para os especialistas responderem se existe \textbf{algum outro requisito }que o estudante EAD deve preencher para usufruir do ambiente adequadamente (Q3). Entre os comentários, houve diversas menções de que é necessário ter tempo e paciência para desenvolver o trabalho no mundo virtual. Outros afirmaram que é preciso supervisão, pois caso contrário o estudante $``$vai partir para apenas diversão$"$ . Em razão do formato do ambiente simular uma empresa, um participante mencionou que é necessário que o usuário tenha uma noção de como funciona uma organização e seus departamentos. Também foi salientada a necessidade de se conhecer previamente as funções do teclado que correspondem aos movimentos do avatar, e que seria interessante direcioná-las para o \textit{mouse} (o que é inviável no caso da plataforma OpenSim). Ainda, coordenação motora, experiência em navegação em mundos virtuais ou jogos 3D, e saber como usar o avatar e a plataforma OpenSim foi mencionado. Um especialista, que realizou o acesso do seu próprio computador, afirmou que o mais difícil para alguém sem experiência é a configuração do visualizador.
}
\ParallelParTOP
%eng106
