Regarding the use of the environment in the DE centres, the experts stated that the presence of in-person tutors was necessary to follow the activity, and suggested that perhaps the best approach would be to have the students have a first access with this assistance in the DE centres, being able to follow up for home use. It was emphasized that it is very valid that the student can resume his activities at home or elsewhere.
}
%pt121
