Na Q4 buscou-se identificar pela opinião dos especialistas como seria para um estudante EAD \textbf{aprender a operar }o ambiente, onde as extremidades da escala corresponderam a $``$Muito fácil$"$  (1) e $``$Muito difícil$"$  (5). A percepção foi de que este aprendizado seria relativamente fácil, pois 43$\%$  deles escolheu as pontuações 1 ou 2, e 37$\%$  posicionou-se de forma neutra, atribuindo pontuação 3. Apenas 10$\%$  da amostra considerou que seria um pouco difícil, e nenhum participante indicou que seria muito difícil para o público-alvo aprender a operar o ambiente. Este resultado revela que a operacionalização não foi entendida como uma tarefa de dificuldade extrema, ou seja, é relativamente fácil aprender a operar o mundo virtual 3D.
}
\ParallelParTOP
%eng108
