In Q4 we tried to identify by the experts' opinion how it would be for an distance education student to \textbf{learn how to operate} the environment, where the ends of the scale corresponded to ``Very easy'' (1) and ``Very difficult'' (5). The perception was that the learning would be relatively easy, since $43\%$ of them chose scores 1 or 2, and $37\%$ positioned themselves in a neutral way, assigning a score of 3. Only $10\%$ of the sample considered it to be a little difficult, and none indicated that it would be very difficult for the target audience to learn how to operate the environment. This result reveals that the operationalization was not understood as a task of extreme difficulty, that is, it is relatively easy to learn how to operate the 3D virtual world.
}
%pt107
