Ainda na análise da Q13, alguns especialistas indicaram a necessidade de $``$mais níveis de interatividade$"$  ao longo do caminho do usuário no ambiente, e outros sugeriram a aplicação da aprendizagem baseada em problemas, reforçando o exposto Q12, justificando que $``$o ambiente possibilita uma visão aplicada do conteúdo$"$ . Foi mencionado o uso da $``$sala de aula invertida$"$ , mas o participante não esclareceu as razões. Dois participantes manifestaram não saber opinar a esse respeito.
}
\ParallelParTOP
%eng140
