The first part of the questionnaire was designed to investigate the technical question (TQ). REF shows a summary of the percentage of responses received for each question in each of the five-point Likert scale items (Q1 to Q5), with the exception of Q3 that it is a dissertative question. Subsequently, the results are analyzed and interpreted.
}
%pt97
