Por meio da Q6 buscou-se investigar se os especialistas consideram que \textbf{é viável para um estudante de EAD utilizar o ambiente em sua própria casa}, onde a maioria (63$\%$ ) assinalou a opção $``$Sim, mas com ressalvas$"$ , enquanto os outros 37$\%$  indicaram a opção $``$Sim$"$ . Nenhum participante negou esta viabilidade. Sendo assim, é possível constatar que a percepção dos especialistas quanto ao uso do ambiente pelo estudante EAD em sua próprias residência é vista como uma possibilidade viável de execução.
}
\ParallelParTOP
%eng116
