Still in the Q13 analysis, some experts pointed to the need for ``more levels of interactivity'' along the user's path in the environment, and others suggested the application of problem-based learning, reinforcing the exposed in Q12, justifying that ``the environment enables an applied view of the content''. The use of the ``inverted classroom'' was mentioned, but the participant did not clarify the reasons. Two participants said they were not able to give their opinion.
}
%pt139
