Finally, a last item (Q15) was inserted for \textbf{additional comments} from the experts, who indicated that the ``game'' should be lighter because it presents a lot of errors, and this may make the first experience not useful; they also pointed out that some questions in the environment have some answer options hidden by the scroll bar in the window they appear in, and that may be confusing. Participants mentioned believing that the environment will be well accepted by most distance education students, and that the simulation of a business environment is quite positive. Additional final suggestions include:
a) the creation of a ``meeting room where the candidate could be interviewed by the company's board of directors'';
b) the creation of an ``auditorium in the company where courses could be carried out'';
c) that the user has a previous time inside the virtual world, for recognition of the place and familiarization with the commands of the avatar. One specialist thanked for ``availability and showing us these interactive possibilities to be applied in education''.
}
%pt143
