Regarding the Pedagogical Question (PQ), the experts indicated that the presented virtual world has the potential to increse the motivation of the distance education student. Also, they pointed out that the correspondence between the environment and what is explained in the classroom exists, but it may still be weak or insufficient. In this item, it was observed a limitation of the data collection instrument, when proposing questions that may not have been adequate for all integrants of the sample, given that the specialists were from differents areas and only two of them lectured the subject treated in the environment.
}
%pt161
