In this section a general overview of the results obtained through the study is carried out, contextualizing with the knowledge available in the literature and the perspective of the researchers.
}
%pt151
