Para finalizar, entre os comentários gerais dos especialistas foi mencionado como ponto negativo que o ambiente apresenta erros, o que pode fazer com que a primeira experiência não seja tão proveitosa, e recomendaram que o estudante tenha um tempo dentro do ambiente para reconhecimento e ambientação com os comandos do avatar. Os erros serão corrigidos e o tempo dentro do ambiente foi idealizado para ficar a cargo do estudante, que terá livre acesso ao mundo virtual, sem duração de interação preestabelecida e acessando a partir de sua casa; como diferencial, ele será orientado a reconhecer os controles e ficar mais confortável com a interação antes de começar a atividade de fato. Como ponto positivo, os especialistas destacaram que o mundo virtual será bem aceito pela maioria dos alunos, e que a simulação de um ambiente empresarial é algo bastante positivo, especialmente em uma modalidade de ensino que, em geral, carece de práticas educacionais e se atém muito à teoria, como é o caso da EAD.
}
\ParallelParTOP
%eng168
